{
  "name": "middle-end-core",
  "$schema": "../../node_modules/nx/schemas/project-schema.json",
  "sourceRoot": "apps/middle-end-core/src",
  "projectType": "application",
  "targets": {
    "build": {
      "executor": "@nx/webpack:webpack",
      "outputs": [
        "{options.outputPath}"
      ],
      "defaultConfiguration": "production",
      "options": {
        "target": "node",
        "compiler": "tsc",
        "outputPath": "dist/apps/middle-end-core",
        "main": "apps/middle-end-core/src/main.ts",
        "tsConfig": "apps/middle-end-core/tsconfig.app.json",
        "assets": [
          "apps/middle-end-core/src/assets"
        ],
        "isolatedConfig": true,
        "webpackConfig": "apps/middle-end-core/webpack.config.js"
      },
      "configurations": {
        "development": {},
        "production": {}
      }
    },
    "seed": {
      "executor": "@nx/js:node",
      "options": {
        "buildTarget": "middle-end-core:build-seed"
      }
    },
    "repl": {
      "executor": "@nx/js:node",
      "options": {
        "buildTarget": "middle-end-core:build-repl"
      }
    },
    "serve": {
      "executor": "@nx/js:node",
      "defaultConfiguration": "development",
      "options": {
        "buildTarget": "middle-end-core:build"
      },
      "configurations": {
        "development": {
          "buildTarget": "middle-end-core:build:development"
        },
        "production": {
          "buildTarget": "middle-end-core:build:production"
        }
      }
    },
    "lint": {
      "executor": "@nx/linter:eslint",
      "outputs": [
        "{options.outputFile}"
      ],
      "options": {
        "lintFilePatterns": [
          "apps/middle-end-core/**/*.ts"
        ]
      }
    },
    "test": {
      "executor": "@nx/jest:jest",
      "outputs": [
        "{workspaceRoot}/coverage/{projectRoot}"
      ],
      "options": {
        "jestConfig": "apps/middle-end-core/jest.config.ts",
        "passWithNoTests": true
      },
      "configurations": {
        "ci": {
          "ci": true,
          "codeCoverage": true
        }
      }
    },
    "build-seed": {
      "executor": "@nx/webpack:webpack",
      "outputs": [
        "{options.outputPath}"
      ],
      "defaultConfiguration": "development",
      "options": {
        "target": "node",
        "compiler": "tsc",
        "outputPath": "dist/apps/seed",
        "main": "apps/middle-end-core/src/seeds/seed.ts",
        "tsConfig": "apps/middle-end-core/tsconfig.app.json",
        "assets": [
          "apps/middle-end-core/src/assets"
        ],
        "isolatedConfig": true,
        "webpackConfig": "apps/middle-end-core/webpack.config.js"
      },
      "configurations": {
        "development": {}
      }
    },
    "build-repl": {
      "executor": "@nx/webpack:webpack",
      "outputs": [
        "{options.outputPath}"
      ],
      "defaultConfiguration": "development",
      "options": {
        "target": "node",
        "compiler": "tsc",
        "outputPath": "dist/apps/repl",
        "main": "apps/middle-end-core/src/repl",
        "tsConfig": "apps/middle-end-core/tsconfig.app.json",
        "assets": [
          "apps/middle-end-core/src/assets"
        ],
        "isolatedConfig": true,
        "webpackConfig": "apps/middle-end-core/webpack.config.js"
      }
    }
  },
  "tags": []
}